…
Here, we used the udpipe backend, which is the recommended place to start.
The returned annotation object is nothing more than a list of data frames
similar to a set of tables within a database. If we load the **tibble** package,
which is recommended but optional, these data frames will print out in a
compact way:

```{r}
library(tibble)
obj
```
```
> obj
$token
# A tibble: 68 x 10
      id   sid   tid token  lemma upos  xpos  feats          tid_source relation
 * <int> <int> <dbl> <chr>  <chr> <chr> <chr> <chr>          <chr>      <chr>
 1     1     1     1 The    the   DET   DT    Definite=Def|… 5          det
 2     1     1     2 regul… regu… ADJ   JJ    Degree=Pos     5          amod
 3     1     1     3 early  early ADJ   JJ    Degree=Pos     4          amod
 4     1     1     4 morni… morn… NOUN  NN    Number=Sing    5          compound
 5     1     1     5 yell   yell  NOUN  NN    Number=Sing    10         nsubj
 6     1     1     6 of     of    ADP   IN    NA             7          case
 7     1     1     7 horror horr… NOUN  NN    Number=Sing    5          nmod
 8     1     1     8 was    be    AUX   VBD   Mood=Ind|Numb… 10         cop
 9     1     1     9 the    the   DET   DT    Definite=Def|… 10         det
10     1     1    10 sound  sound NOUN  NN    Number=Sing    0          root
# … with 58 more rows
…
