…
The tokens table has one row for each word in the input text, giving data
about each word such as its lemmatized form and its part of speech. We
access these table with the `get_token` function:

```{r}
get_token(obj)
```
```
## # A tibble: 71 × 8
##       id   sid   tid    word   lemma  upos   pos   cid
##    <int> <int> <int>   <chr>   <chr> <chr> <chr> <int>
## 1      0     0     0    ROOT    ROOT  <NA>  <NA>    NA
## 2      0     0     1     The     the   DET    DT     0
## 3      0     0     2 regular regular   ADJ    JJ     4
## 4      0     0     3   early   early   ADJ    JJ    12
## 5      0     0     4 morning morning  NOUN    NN    18
## 6      0     0     5    yell    yell  NOUN    NN    26
## 7      0     0     6      of      of   ADP    IN    31
## 8      0     0     7  horror  horror  NOUN    NN    34
## 9      0     0     8     was      be  VERB   VBD    41
## 10     0     0     9     the     the   DET    DT    45
## # ... with 61 more rows
```
…
