…
Given the annotators selected during the pipeline initialization, some of these
columns may contain only missing data. A composite key exists by taking together the
document id, sentence id, and token id. There is also a set of foreign keys \code{cid}
and \code{cid\_end} giving character offsets back into the original source document.
An example of the table looks like this:
```{r}
get_token(obama)
```
```
## # A tibble: 61,881 × 8
##       id   sid   tid      word     lemma  upos   pos   cid
##    <int> <int> <int>     <chr>     <chr> <chr> <chr> <int>
## 1      0     0     1     Madam     Madam  NOUN   NNP     0
## 2      0     0     2   Speaker   Speaker  NOUN   NNP     6
## 3      0     0     3         ,         ,     .     ,    13
## 4      0     0     4       Mr.       Mr.  NOUN   NNP    15
## 5      0     0     5      Vice      Vice  NOUN   NNP    19
## 6      0     0     6 President President  NOUN   NNP    24
## 7      0     0     7         ,         ,     .     ,    33
## 8      0     0     8   Members   Members  NOUN   NNP    35
## 9      0     0     9        of        of   ADP    IN    43
## 10     0     0    10  Congress  Congress  NOUN   NNP    46
## # ... with 61,871 more rows
```
…
Dependencies take significantly longer to calculate than the lemmatization and part
of speech tagging tasks. By default, the ``set_language`` function selects a
fast neural network parser that requires more memory but runs nearly twice as fast
as other default parsers in the CoreNLP pipeline.

The ``get_dependency`` function has an option (set to "FALSE" by default)
to auto join the dependency to the target and source tokens and words from the
token table. This is a common task and involves non-trivial calls to the
``left_join`` function making it worthwhile to include as an option. The output,
with the option turned on, is given by:
```{r}
get_dependency(obama, get_token = TRUE)
```
```
## # A tibble: 16,592,392 × 11
##       id   sid   tid tid_target relation relation_full  word lemma sid_target
##    <int> <int> <int>      <int>    <chr>         <chr> <chr> <chr>      <int>
## 1      0     0     0          2     root          root  <NA>  <NA>          0
## 2      0     0     0          2     root          root  <NA>  <NA>          1
## 3      0     0     0          2     root          root  <NA>  <NA>          2
## 4      0     0     0          2     root          root  <NA>  <NA>          3
## 5      0     0     0          2     root          root  <NA>  <NA>          4
## 6      0     0     0          2     root          root  <NA>  <NA>          5
## 7      0     0     0          2     root          root  <NA>  <NA>          6
## 8      0     0     0          2     root          root  <NA>  <NA>          7
## 9      0     0     0          2     root          root  <NA>  <NA>          8
## 10     0     0     0          2     root          root  <NA>  <NA>          9
## # ... with 16,592,382 more rows, and 2 more variables: word_target <chr>,
## #   lemma_target <chr>
```
…
- **id** integer. Id of the source document.
- **sid** integer. Sentence id of the entity mention.
- **tid** integer. Token id at the start of the entity mention.
- **tid_end** integer. Token id at the end of the entity mention.
- **entity_type** character. Type of entity.
- **entity** character. Raw words of the named entity in the text.
- **entity_normalized** character. Normalized version of the entity.

An example of the named entity table is given by:
```{r}
get_entity(obama)
```
```
## # A tibble: 3,166 × 7
##       id   sid   tid tid_end  entity_type              entity
##    <int> <int> <int>   <int>        <chr>               <chr>
## 1      0     1     2       2       PERSON             Speaker
## 2      0     1    10      10 ORGANIZATION            Congress
## 3      0     1    13      13         MISC           Americans
## 4      0     1    15      17         DATE Fifty-one years ago
## 5      0     1    19      21       PERSON     John F. Kennedy
## 6      0     3     1       1         DATE             Tonight
## 7      0     3    11      11         MISC            American
## 8      0     4     2       3     DURATION            a decade
## 9      0     5     2       2     DURATION               years
## 10     0     5    12      13       NUMBER           6 million
## # ... with 3,156 more rows, and 1 more variables: entity_normalized <chr>
```
…
Links back into the token table for the start, end and head of the mention are given as
well; these are pushed to the right of the table as they should be considered
foreign keys within this table.

An example helps to explain exactly what the coreference table represents (the first row is
removed as its mention is quite long and makes the table hard to read):
```{r}
get_coreference(obama)[-1,]
```
```
## # A tibble: 6,984 × 12
##       id   rid   mid       mention mention_type   number  gender   animacy
##    <int> <int> <int>         <chr>        <chr>    <chr>   <chr>     <chr>
## 1      0  1537  1531   Afghanistan       PROPER SINGULAR NEUTRAL INANIMATE
## 2      0  1537  1537   Afghanistan       PROPER SINGULAR NEUTRAL INANIMATE
## 3      0  2050  2007   a democracy      NOMINAL SINGULAR NEUTRAL INANIMATE
## 4      0  2050  2050 our democracy      NOMINAL SINGULAR NEUTRAL INANIMATE
## 5      0  1796  1746             I   PRONOMINAL SINGULAR UNKNOWN   ANIMATE
## 6      0  1796  1796             I   PRONOMINAL SINGULAR UNKNOWN   ANIMATE
## 7      0  2053  2022            we   PRONOMINAL   PLURAL UNKNOWN   ANIMATE
## 8      0  2053  2023           our   PRONOMINAL   PLURAL UNKNOWN   ANIMATE
## 9      0  2053  2044            We   PRONOMINAL   PLURAL UNKNOWN   ANIMATE
## 10     0  2053  2046            we   PRONOMINAL   PLURAL UNKNOWN   ANIMATE
## # ... with 6,974 more rows, and 4 more variables: sid <int>, tid <int>,
## #   tid_end <int>, tid_head <int>
```
…
## Sentences

The schema for sentence-level information is given by:

- **id** integer. Id of the source document.
- **sid** integer. Sentence id.
- **sentiment** integer. Predicted sentiment class of the sentence, from 0 (worst) to 4 (best).

An example of the output can be seen in:
```{r}
get_sentence(obama)
```
```
## # A tibble: 2,988 × 3
##       id   sid sentiment
##    <int> <int>     <int>
## 1      0     0         1
## 2      0     1         3
## 3      0     2         1
## 4      0     3         1
## 5      0     4         2
## 6      0     5         1
## 7      0     6         3
## 8      0     7         1
## 9      0     8         1
## 10     0     9         1
## # ... with 2,978 more rows
```
…
