…
```{r}
pca <- anno$token %>%
  filter(xpos %in% c("NN", "NNS")) %>%
  cnlp_utils_tfidf(min_df = 0.05, max_df = 0.95, tf_weight = "dnorm") %>%
  cnlp_utils_pca()
pca <- bind_cols(anno$document, pca)
pca
```
```
# A tibble: 236 x 8
   president          year years_active party      sotu_type doc_id    PC1   PC2
   <chr>             <int> <chr>        <chr>      <chr>      <int>  <dbl> <dbl>
 1 George Washington  1790 1789-1793    Nonpartis… speech         1  -2.30  13.0
 2 George Washington  1790 1789-1793    Nonpartis… speech         2  -4.37  16.5
 3 George Washington  1791 1789-1793    Nonpartis… speech         3  -5.48  12.8
 4 George Washington  1792 1789-1793    Nonpartis… speech         4  -3.54  12.1
 5 George Washington  1793 1793-1797    Nonpartis… speech         5 -16.8   18.8
 6 George Washington  1794 1793-1797    Nonpartis… speech         6  -5.98  13.6
 7 George Washington  1795 1793-1797    Nonpartis… speech         7 -12.7   20.6
 8 George Washington  1796 1793-1797    Nonpartis… speech         8  -8.98  12.6
 9 John Adams         1797 1797-1801    Federalist speech         9  -1.19  10.9
10 John Adams         1798 1797-1801    Federalist speech        10  -5.54  13.0
# … with 226 more rows
```
…
