…
## Running the cleanNLP annotation

Next, we run the udpipe annotation backend over the dataset using **cleanNLP**. Because
of the way the data are structured, each paragraph will be treated as its own document.

```{r}
cnlp_init_udpipe()
anno <- cnlp_annotate(penguin, verbose=FALSE)
anno$token
```
```
# A tibble: 5,519 x 11
   doc_id   sid tid   token token_with_ws lemma upos  xpos  feats tid_source
 *  <int> <int> <chr> <chr> <chr>         <chr> <chr> <chr> <chr> <chr>
 1      1     1 1     Peng… "Penguins "   Peng… NOUN  NNS   Numb… 11
 2      1     1 2     (     "("           (     PUNCT -LRB- NA    1
 3      1     1 3     order "order "      order NOUN  NN    Numb… 4
 4      1     1 4     Sphe… "Spheniscifo… Sphe… NOUN  NNS   Numb… 1
 5      1     1 5     ,     ", "          ,     PUNCT ,     NA    7
 6      1     1 6     fami… "family "     fami… NOUN  NN    Numb… 7
 7      1     1 7     Sphe… "Spheniscida… Sphe… NOUN  NN    Numb… 4
 8      1     1 8     )     ") "          )     PUNCT -RRB- NA    1
 9      1     1 9     are   "are "        be    AUX   VBP   Mood… 11
10      1     1 10    a     "a "          a     DET   DT    Defi… 11
# … with 5,509 more rows, and 1 more variable: relation <chr>
```
…
