Creating Text Visualizations with Wikipedia Data
…
Running the cleanNLP annotation

Next, we run the udpipe annotation backend over the dataset using cleanNLP. Because of the way the data are structured, each paragraph will be treated as its own document.

cnlp_init_udpipe()
anno <- cnlp_annotate(penguin, verbose=FALSE)
anno$token

## # A tibble: 5,457 x 11
##    doc_id   sid tid   token token_with_ws lemma upos  xpos  feats
##  *  <int> <int> <chr> <chr> <chr>         <chr> <chr> <chr> <chr>
##  1      1     1 1     Peng… "Penguins "   Peng… NOUN  NNS   Numb…
##  2      1     1 2     (     (             (     PUNCT -LRB- <NA> 
##  3      1     1 3     order "order "      order NOUN  NN    Numb…
##  4      1     1 4     Sphe… Spheniscifor… Sphe… NOUN  NNS   Numb…
##  5      1     1 5     ,     ", "          ,     PUNCT ,     <NA> 
##  6      1     1 6     fami… "family "     fami… NOUN  NN    Numb…
##  7      1     1 7     Sphe… Spheniscidae  Sphe… NOUN  NN    Numb…
##  8      1     1 8     )     ") "          )     PUNCT -RRB- <NA> 
##  9      1     1 9     are   "are "        be    AUX   VBP   Mood…
## 10      1     1 10    a     "a "          a     DET   DT    Defi…
## # … with 5,447 more rows, and 2 more variables: tid_source <chr>,
## #   relation <chr>
…
