…
```{r}
library(cleanNLP)
cnlp_init_udpipe()

annotation <- cnlp_annotate(input = c(
        "Here is the first text. It is short.",
        "Here's the second. It is short too!",
        "The third text is the shortest."
))
annotation
```
```
$token
# A tibble: 27 x 11
   doc_id   sid tid   token lemma space_after upos  xpos  feats tid_source
 *  <int> <int> <chr> <chr> <chr> <chr>       <chr> <chr> <chr> <chr>
 1      1     1 1     Here  here  "\\s"       ADV   RB    Pron… 0
 2      1     1 2     is    be    "\\s"       AUX   VBZ   Mood… 1
 3      1     1 3     the   the   "\\s"       DET   DT    Defi… 5
 4      1     1 4     first first "\\s"       ADJ   JJ    Degr… 5
 5      1     1 5     text  text  No          NOUN  NN    Numb… 1
 6      1     1 6     .     .     "\\s"       PUNCT .     NA    1
 7      1     2 1     It    it    "\\s"       PRON  PRP   Case… 3
 8      1     2 2     is    be    "\\s"       AUX   VBZ   Mood… 3
 9      1     2 3     short short No          ADJ   JJ    Degr… 0
10      1     2 4     .     .     "\\n"       PUNCT .     NA    3
# … with 17 more rows, and 1 more variable: relation <chr>
…
