Exploring the State of the Union Addresses: A Case Study with cleanNLP
…
Models

Principal Component Analysis (PCA)

The cnlp_utils_tfidf function provided by cleanNLP converts a token table into a sparse matrix representing the term-frequency inverse document frequency matrix (or any intermediate part of that calculation). This is particularly useful when building models from a textual corpus. The cnlp_utils_pca, also included with the package, takes a matrix and returns a data frame containing the desired number of principal components. Dimension reduction involves piping the token table for a corpus into the cnlp_utils_tfidf function and passing the results to cnlp_utils_pca.

pca <- anno$token %>%
  filter(xpos %in% c("NN", "NNS")) %>%
  cnlp_utils_tfidf(min_df = 0.05, max_df = 0.95, tf_weight = "dnorm") %>%
  cnlp_utils_pca()
pca <- bind_cols(anno$document, pca)
pca

## # A tibble: 236 x 8
##    president      year years_active party    sotu_type doc_id     PC1   PC2
##    <chr>         <int> <chr>        <chr>    <chr>      <int>   <dbl> <dbl>
##  1 George Washi…  1790 1789-1793    Nonpart… speech         1  -1.82   13.1
##  2 George Washi…  1790 1789-1793    Nonpart… speech         2  -4.74   17.1
##  3 George Washi…  1791 1789-1793    Nonpart… speech         3  -5.63   13.2
##  4 George Washi…  1792 1789-1793    Nonpart… speech         4  -4.84   13.0
##  5 George Washi…  1793 1793-1797    Nonpart… speech         5 -17.1    19.2
##  6 George Washi…  1794 1793-1797    Nonpart… speech         6  -5.97   13.8
##  7 George Washi…  1795 1793-1797    Nonpart… speech         7 -13.0    20.9
##  8 George Washi…  1796 1793-1797    Nonpart… speech         8  -9.58   12.6
##  9 John Adams     1797 1797-1801    Federal… speech         9  -0.933  11.2
## 10 John Adams     1798 1797-1801    Federal… speech        10  -5.43   13.4
## # … with 226 more rows
…
